{
    "componentChunkName": "component---node-modules-gatsby-theme-buzzing-src-gatsby-theme-timeline-templates-posts-query-js",
    "path": "/zh-Hant/page/3",
    "result": {"data":{"site":{"siteMetadata":{"title":"Quora 热门回答","author":"Buzzing.cc","description":"用中文浏览Quora上的热门回答","keywords":["buzzing","Quora","提问","回答"],"siteUrl":"https://quora.buzzing.cc","telegram":"@buzzingcc","iconUrl":"https://quora.buzzing.cc/avatar.png","defaultSocialImageUrl":null,"social":[{"name":"Quora","url":"https://www.quora.com","external":true},{"name":"Buzzing","url":"https://www.buzzing.cc/","external":true}],"menuLinks":[],"disqus":null,"utterances":null,"localize":[{"title":"Buzzing on Quora","description":"See what's buzzing on Quora in your native language","keywords":["buzzing","Quora"],"locale":"en","social":{"name":null,"url":null,"external":null},"menuLinks":[{"name":"Weekly Selection","url":"/issues","external":null}]},{"title":"Quora 熱門回答","description":"用中文瀏覽Quora上的熱門回答","keywords":["buzzing","Quora","提問","回答"],"locale":"zh-Hant","social":null,"menuLinks":[{"name":"RSS","url":"/zh-Hant/rss.xml","external":null}]},{"title":"Quora 人気の応答","description":"人気のQuora応答を日本語で閲覧","keywords":["buzzing","Quora"],"locale":"ja","social":null,"menuLinks":[]}]}},"tagsGroup":{"group":[{"fieldValue":"BUIDL","totalCount":1},{"fieldValue":"COP26","totalCount":1},{"fieldValue":"NobelPrize","totalCount":3},{"fieldValue":"Python","totalCount":1},{"fieldValue":"SquidGame","totalCount":1},{"fieldValue":"StatisticsDay","totalCount":1},{"fieldValue":"TIL","totalCount":2},{"fieldValue":"WorldTeachersDay","totalCount":1},{"fieldValue":"antiwork","totalCount":1},{"fieldValue":"clojure","totalCount":1},{"fieldValue":"ecrchat","totalCount":1},{"fieldValue":"lyingflat","totalCount":1},{"fieldValue":"phdchat","totalCount":1},{"fieldValue":"rustlang","totalCount":1},{"fieldValue":"tweet","totalCount":109}]},"allBlogPost":{"nodes":[{"id":"TweetPost-1445132916338479106","excerpt":"","slug":"/tweet/1445132916338479106","title":"Hey @Facebook, need some help? https://t.co/eu0ojwBV1c","date":"October 04, 2021","dateISO":"2021-10-04T21:40:11.000Z","datetime":"2021-10-04 21:40","tags":["tweet"],"image":null,"imageAlt":null,"__typename":"SocialMediaPost","provider":"Twitter","thirdPartyId":"1445132916338479106","url":"https://twitter.com/Quora/statuses/1445132916338479106","originalUrl":null,"imageRemote":null,"video":null,"channel":null,"channelUrl":null,"author":"Quora","authorUrl":"https://twitter.com/Quora","authorImageRemote":"https://pbs.twimg.com/profile_images/1413265566693949444/XUVSzyGf.jpg","authorImage":null,"authorSlug":"Quora","score":112,"views":null,"sharedCount":16,"likeCount":80,"sharedContent":null,"parent":{"localize":[{"locale":"ja","full_text":"Hey @Facebook, need some help? https://t.co/eu0ojwBV1c","quoted_status_full_text":null,"retweeted_status_full_text":null},{"locale":"zh","full_text":"嘿，@Facebook，需要帮助吗？https://t.co/eu0ojwBV1c","quoted_status_full_text":null,"retweeted_status_full_text":null},{"locale":"zh-Hant","full_text":"嘿，@Facebook，需要幫助嗎？https://t.co/eu0ojwBV1c","quoted_status_full_text":null,"retweeted_status_full_text":null}]}},{"id":"TweetPost-1444663820438364165","excerpt":"","slug":"/tweet/1444663820438364165","title":"What’s the best way to overcome writer’s block? Answer by @Nicolascole77, digital writer, entrepreneur. https://t.co/d5T2LyyzGZ https://t.co/vZkA9a5fcV","date":"October 03, 2021","dateISO":"2021-10-03T14:40:09.000Z","datetime":"2021-10-03 14:40","tags":["tweet"],"image":null,"imageAlt":"Tweet Image","__typename":"SocialMediaPost","provider":"Twitter","thirdPartyId":"1444663820438364165","url":"https://twitter.com/Quora/statuses/1444663820438364165","originalUrl":null,"imageRemote":"https://pbs.twimg.com/media/FAx6FsfXIAEWE_z.jpg","video":null,"channel":null,"channelUrl":null,"author":"Quora","authorUrl":"https://twitter.com/Quora","authorImageRemote":"https://pbs.twimg.com/profile_images/1413265566693949444/XUVSzyGf.jpg","authorImage":null,"authorSlug":"Quora","score":0,"views":null,"sharedCount":0,"likeCount":0,"sharedContent":null,"parent":{"localize":[{"locale":"ja","full_text":"ライターズブロックを克服するための最良の方法とは？回答者：@Nicolascole77（デジタルライター、起業家） https://t.co/d5T2LyyzGZ https://t.co/vZkA9a5fcV","quoted_status_full_text":null,"retweeted_status_full_text":null},{"locale":"zh","full_text":"克服写作障碍的最好方法是什么？回答者：@Nicolascole77，数字作家，企业家。https://t.co/d5T2LyyzGZ https://t.co/vZkA9a5fcV","quoted_status_full_text":null,"retweeted_status_full_text":null},{"locale":"zh-Hant","full_text":"克服寫作障礙的最好方法是什麼？回答者：@Nicolascole77，數字作家，企業家。https://t.co/d5T2LyyzGZ https://t.co/vZkA9a5fcV","quoted_status_full_text":null,"retweeted_status_full_text":null}]}},{"id":"TweetPost-1444422052086263821","excerpt":"","slug":"/tweet/1444422052086263821","title":"What are some tips for writing a strong college admissions essay? Answer by @jillshulman, Author, College Essay Coach. https://t.co/EYrQskySoE https://t.co/8BVlWR89pA","date":"October 02, 2021","dateISO":"2021-10-02T22:42:53.000Z","datetime":"2021-10-02 22:42","tags":["tweet"],"image":null,"imageAlt":"Tweet Image","__typename":"SocialMediaPost","provider":"Twitter","thirdPartyId":"1444422052086263821","url":"https://twitter.com/Quora/statuses/1444422052086263821","originalUrl":null,"imageRemote":"https://pbs.twimg.com/media/FAueM7JXIAA2kBI.jpg","video":null,"channel":null,"channelUrl":null,"author":"Quora","authorUrl":"https://twitter.com/Quora","authorImageRemote":"https://pbs.twimg.com/profile_images/1413265566693949444/XUVSzyGf.jpg","authorImage":null,"authorSlug":"Quora","score":1,"views":null,"sharedCount":0,"likeCount":1,"sharedContent":null,"parent":{"localize":[{"locale":"ja","full_text":"強力な大学入試用エッセイを書くためのヒントを教えてください。Answer by @jillshulman, Author, College Essay Coach. https://t.co/EYrQskySoE https://t.co/8BVlWR89pA","quoted_status_full_text":null,"retweeted_status_full_text":null},{"locale":"zh","full_text":"写出一篇强有力的大学录取论文有哪些技巧？回答者：@jillshulman，作者，大学作文教练。https://t.co/EYrQskySoE https://t.co/8BVlWR89pA","quoted_status_full_text":null,"retweeted_status_full_text":null},{"locale":"zh-Hant","full_text":"寫出一篇強有力的大學錄取論文有哪些技巧？回答者：@jillshulman，作者，大學作文教練。https://t.co/EYrQskySoE https://t.co/8BVlWR89pA","quoted_status_full_text":null,"retweeted_status_full_text":null}]}},{"id":"TweetPost-1444301490047393801","excerpt":"","slug":"/tweet/1444301490047393801","title":"What should startup founders and managers know about interviewing remote hires? Answer by Ruby Lee, Co-Founder &amp; CTO at @JuniLearning. https://t.co/P3jqXhDhPj https://t.co/LrW4fmbMvf","date":"October 02, 2021","dateISO":"2021-10-02T14:40:10.000Z","datetime":"2021-10-02 14:40","tags":["tweet"],"image":null,"imageAlt":"Tweet Image","__typename":"SocialMediaPost","provider":"Twitter","thirdPartyId":"1444301490047393801","url":"https://twitter.com/Quora/statuses/1444301490047393801","originalUrl":null,"imageRemote":"https://pbs.twimg.com/media/FAswjTyWYAA492v.jpg","video":null,"channel":null,"channelUrl":null,"author":"Quora","authorUrl":"https://twitter.com/Quora","authorImageRemote":"https://pbs.twimg.com/profile_images/1413265566693949444/XUVSzyGf.jpg","authorImage":null,"authorSlug":"Quora","score":2,"views":null,"sharedCount":1,"likeCount":0,"sharedContent":null,"parent":{"localize":[{"locale":"ja","full_text":"スタートアップの創業者やマネージャーが、リモート採用の面接について知っておくべきことは？Answer by Ruby Lee, Co-Founder &amp; CTO at @JuniLearning. https://t.co/P3jqXhDhPj https://t.co/LrW4fmbMvf","quoted_status_full_text":null,"retweeted_status_full_text":null},{"locale":"zh","full_text":"创业公司的创始人和经理们在面试远程雇员时应该知道什么？由@JuniLearning的联合创始人&amp; CTO Ruby Lee回答。https://t.co/P3jqXhDhPj https://t.co/LrW4fmbMvf","quoted_status_full_text":null,"retweeted_status_full_text":null},{"locale":"zh-Hant","full_text":"創業公司的創始人和經理們在面試遠程僱員時應該知道什麼？由@JuniLearning的聯合創始人&amp; CTO Ruby Lee回答。https://t.co/P3jqXhDhPj https://t.co/LrW4fmbMvf","quoted_status_full_text":null,"retweeted_status_full_text":null}]}},{"id":"TweetPost-1444079893466157057","excerpt":"","slug":"/tweet/1444079893466157057","title":"#TIL there is an animal faster than a cheetah. https://t.co/xizyY8xPJM \nWhat did you learn today? Best answers get a retweet!","date":"October 01, 2021","dateISO":"2021-10-01T23:42:45.000Z","datetime":"2021-10-01 23:42","tags":["TIL","tweet"],"image":null,"imageAlt":null,"__typename":"SocialMediaPost","provider":"Twitter","thirdPartyId":"1444079893466157057","url":"https://twitter.com/Quora/statuses/1444079893466157057","originalUrl":null,"imageRemote":null,"video":null,"channel":null,"channelUrl":null,"author":"Quora","authorUrl":"https://twitter.com/Quora","authorImageRemote":"https://pbs.twimg.com/profile_images/1413265566693949444/XUVSzyGf.jpg","authorImage":null,"authorSlug":"Quora","score":0,"views":null,"sharedCount":0,"likeCount":0,"sharedContent":null,"parent":{"localize":[{"locale":"ja","full_text":"#チーターより速い動物がいるhttps://t.co/xizyY8xPJM \n今日は何を学びましたか？ベストアンサーはリツイートされます。","quoted_status_full_text":null,"retweeted_status_full_text":null},{"locale":"zh","full_text":"#TIL有一种动物比猎豹更快。https://t.co/xizyY8xPJM \n你今天学到了什么？最佳答案可获得转发!","quoted_status_full_text":null,"retweeted_status_full_text":null},{"locale":"zh-Hant","full_text":"#TIL有一種動物比獵豹更快。https://t.co/xizyY8xPJM \n你今天學到了什麼？最佳答案可獲得轉發!","quoted_status_full_text":null,"retweeted_status_full_text":null}]}},{"id":"TweetPost-1444059767614459907","excerpt":"","slug":"/tweet/1444059767614459907","title":"What are the first five things a company should do before launching? Answer by @eytanbensoussan, Co-Founder of @northonebanking. https://t.co/zhmEiSmGNZ https://t.co/yIRN0oqQGe","date":"October 01, 2021","dateISO":"2021-10-01T22:39:04.000Z","datetime":"2021-10-01 22:39","tags":["tweet"],"image":null,"imageAlt":"Tweet Image","__typename":"SocialMediaPost","provider":"Twitter","thirdPartyId":"1444059767614459907","url":"https://twitter.com/Quora/statuses/1444059767614459907","originalUrl":null,"imageRemote":"https://pbs.twimg.com/media/FApUtN2XIAIspO8.jpg","video":null,"channel":null,"channelUrl":null,"author":"Quora","authorUrl":"https://twitter.com/Quora","authorImageRemote":"https://pbs.twimg.com/profile_images/1413265566693949444/XUVSzyGf.jpg","authorImage":null,"authorSlug":"Quora","score":0,"views":null,"sharedCount":0,"likeCount":0,"sharedContent":null,"parent":{"localize":[{"locale":"ja","full_text":"会社が立ち上げる前に最初にすべき5つのこととは？answer by @eytanbensoussan, Co-Founder of @northonebanking. https://t.co/zhmEiSmGNZ https://t.co/yIRN0oqQGe","quoted_status_full_text":null,"retweeted_status_full_text":null},{"locale":"zh","full_text":"一个公司在启动前应该做的前五件事是什么？回答者：@eytanbensoussan，@northonebanking的联合创始人。https://t.co/zhmEiSmGNZ https://t.co/yIRN0oqQGe","quoted_status_full_text":null,"retweeted_status_full_text":null},{"locale":"zh-Hant","full_text":"一個公司在啓動前應該做的前五件事是什麼？回答者：@eytanbensoussan，@northonebanking的聯合創始人。https://t.co/zhmEiSmGNZ https://t.co/yIRN0oqQGe","quoted_status_full_text":null,"retweeted_status_full_text":null}]}},{"id":"TweetPost-1444029582022254603","excerpt":"","slug":"/tweet/1444029582022254603","title":"The Cumbre Vieja volcano on the island of La Palma off the Morocco coast is erupting again. It was once thought to be the next volcano to undergo catastrophic collapse. Is there any danger of a tsunami crossing the Atlantic? Experts say it's unlikely: https://t.co/zoSKWlNrAr https://t.co/VAyjsgJPCq","date":"October 01, 2021","dateISO":"2021-10-01T20:35:42.000Z","datetime":"2021-10-01 20:35","tags":["tweet"],"image":null,"imageAlt":"Tweet Image","__typename":"SocialMediaPost","provider":"Twitter","thirdPartyId":"1444029582022254603","url":"https://twitter.com/Quora/statuses/1444029582022254603","originalUrl":null,"imageRemote":"https://pbs.twimg.com/media/FAo5QI-XsAUUgTq.jpg","video":null,"channel":null,"channelUrl":null,"author":"Quora","authorUrl":"https://twitter.com/Quora","authorImageRemote":"https://pbs.twimg.com/profile_images/1413265566693949444/XUVSzyGf.jpg","authorImage":null,"authorSlug":"Quora","score":9,"views":null,"sharedCount":3,"likeCount":3,"sharedContent":null,"parent":{"localize":[{"locale":"ja","full_text":"モロッコ沿岸のラ・パルマ島にあるクンブレ・ビエハ火山が再び噴火している。かつては、次に壊滅的な噴火を起こす火山と考えられていた。大西洋を横断する津波の危険はないのか？専門家は、その可能性は低いとしています。https://t.co/zoSKWlNrAr https://t.co/VAyjsgJPCq","quoted_status_full_text":null,"retweeted_status_full_text":null},{"locale":"zh","full_text":"摩洛哥海岸外拉帕尔马岛上的孔布雷-维埃哈火山再次喷发。它曾被认为是下一座发生灾难性坍塌的火山。是否有海啸穿越大西洋的危险？专家说这不太可能: https://t.co/zoSKWlNrAr https://t.co/VAyjsgJPCq","quoted_status_full_text":null,"retweeted_status_full_text":null},{"locale":"zh-Hant","full_text":"摩洛哥海岸外拉帕爾馬島上的孔佈雷-維埃哈火山再次噴發。它曾被認爲是下一座發生災難性坍塌的火山。是否有海嘯穿越大西洋的危險？專家說這不太可能: https://t.co/zoSKWlNrAr https://t.co/VAyjsgJPCq","quoted_status_full_text":null,"retweeted_status_full_text":null}]}},{"id":"TweetPost-1444006898039078912","excerpt":"","slug":"/tweet/1444006898039078912","title":"Hey everyone! Quora has a question for you, for a change. What are you looking for from us on Twitter?","date":"October 01, 2021","dateISO":"2021-10-01T18:45:39.000Z","datetime":"2021-10-01 18:45","tags":["tweet"],"image":null,"imageAlt":null,"__typename":"SocialMediaPost","provider":"Twitter","thirdPartyId":"1444006898039078912","url":"https://twitter.com/Quora/statuses/1444006898039078912","originalUrl":null,"imageRemote":null,"video":null,"channel":null,"channelUrl":null,"author":"Quora","authorUrl":"https://twitter.com/Quora","authorImageRemote":"https://pbs.twimg.com/profile_images/1413265566693949444/XUVSzyGf.jpg","authorImage":null,"authorSlug":"Quora","score":5,"views":null,"sharedCount":1,"likeCount":3,"sharedContent":null,"parent":{"localize":[{"locale":"ja","full_text":"皆さん、こんにちは。Quoraから一転して質問です。ツイッターで私たちに何を求めていますか？","quoted_status_full_text":null,"retweeted_status_full_text":null},{"locale":"zh","full_text":"大家好! Quora有一个问题要问你，改变一下。你想从我们的Twitter上得到什么？","quoted_status_full_text":null,"retweeted_status_full_text":null},{"locale":"zh-Hant","full_text":"大家好! Quora有一個問題要問你，改變一下。你想從我們的Twitter上得到什麼？","quoted_status_full_text":null,"retweeted_status_full_text":null}]}},{"id":"TweetPost-1443939392951885829","excerpt":"","slug":"/tweet/1443939392951885829","title":"How can consumers protect themselves from scams or exploitation? Answer by @brian_dammeir, President of North America at @Adyen. https://t.co/XCI4orcOLy https://t.co/f9jtEFsNQM","date":"October 01, 2021","dateISO":"2021-10-01T14:35:38.000Z","datetime":"2021-10-01 14:35","tags":["tweet"],"image":null,"imageAlt":"Tweet Image","__typename":"SocialMediaPost","provider":"Twitter","thirdPartyId":"1443939392951885829","url":"https://twitter.com/Quora/statuses/1443939392951885829","originalUrl":null,"imageRemote":"https://pbs.twimg.com/media/FAnnOfiXEAIGU3l.jpg","video":null,"channel":null,"channelUrl":null,"author":"Quora","authorUrl":"https://twitter.com/Quora","authorImageRemote":"https://pbs.twimg.com/profile_images/1413265566693949444/XUVSzyGf.jpg","authorImage":null,"authorSlug":"Quora","score":1,"views":null,"sharedCount":0,"likeCount":1,"sharedContent":null,"parent":{"localize":[{"locale":"ja","full_text":"消費者はどのようにして詐欺や搾取から身を守ることができるのでしょうか？Answer by @brian_dammeir, President of North America at @Adyen. https://t.co/XCI4orcOLy https://t.co/f9jtEFsNQM","quoted_status_full_text":null,"retweeted_status_full_text":null},{"locale":"zh","full_text":"消费者如何保护自己免受诈骗或剥削？回答者：@brian_dammeir，@Adyen的北美总裁。https://t.co/XCI4orcOLy https://t.co/f9jtEFsNQM","quoted_status_full_text":null,"retweeted_status_full_text":null},{"locale":"zh-Hant","full_text":"消費者如何保護自己免受詐騙或剝削？回答者：@brian_dammeir，@Adyen的北美總裁。https://t.co/XCI4orcOLy https://t.co/f9jtEFsNQM","quoted_status_full_text":null,"retweeted_status_full_text":null}]}}]}},"pageContext":{"basePath":"/","pageType":"home","tagsFilter":{"date":{"gt":"2000-12-25T10:54:58.000Z"}},"filter":{"date":{"gt":"2000-12-25T10:54:58.000Z"}},"limit":50,"skip":100,"totalPages":3,"total":109,"currentPage":3,"maxWidth":1024,"maxHeight":512,"siteMetadata":null,"locale":"zh-Hant","hrefLang":"zh-Hant","originalPath":"/page/3","dateFormat":"YYYY-MM-DD"}},
    "staticQueryHashes": ["1239077767","2744905544","3025052997","3280999885"]}