{
    "componentChunkName": "component---node-modules-gatsby-theme-buzzing-src-gatsby-theme-timeline-templates-posts-query-js",
    "path": "/ja/page/3",
    "result": {"data":{"site":{"siteMetadata":{"title":"Quora 热门回答","author":"Buzzing.cc","description":"用中文浏览Quora上的热门回答","keywords":["buzzing","Quora","提问","回答"],"siteUrl":"https://quora.buzzing.cc","telegram":"@buzzingcc","iconUrl":"https://quora.buzzing.cc/avatar.png","defaultSocialImageUrl":null,"social":[{"name":"Quora","url":"https://www.quora.com","external":true},{"name":"Buzzing","url":"https://www.buzzing.cc/","external":true}],"menuLinks":[],"disqus":null,"utterances":null,"localize":[{"title":"Buzzing on Quora","description":"See what's buzzing on Quora in your native language","keywords":["buzzing","Quora"],"locale":"en","social":{"name":null,"url":null,"external":null},"menuLinks":[{"name":"Weekly Selection","url":"/issues","external":null}]},{"title":"Quora 熱門回答","description":"用中文瀏覽Quora上的熱門回答","keywords":["buzzing","Quora","提問","回答"],"locale":"zh-Hant","social":null,"menuLinks":[{"name":"RSS","url":"/zh-Hant/rss.xml","external":null}]},{"title":"Quora 人気の応答","description":"人気のQuora応答を日本語で閲覧","keywords":["buzzing","Quora"],"locale":"ja","social":null,"menuLinks":[]}]}},"tagsGroup":{"group":[{"fieldValue":"BUIDL","totalCount":1},{"fieldValue":"COP26","totalCount":1},{"fieldValue":"NobelPrize","totalCount":3},{"fieldValue":"Python","totalCount":1},{"fieldValue":"SquidGame","totalCount":1},{"fieldValue":"StatisticsDay","totalCount":1},{"fieldValue":"TIL","totalCount":2},{"fieldValue":"WorldTeachersDay","totalCount":1},{"fieldValue":"antiwork","totalCount":1},{"fieldValue":"clojure","totalCount":1},{"fieldValue":"ecrchat","totalCount":1},{"fieldValue":"lyingflat","totalCount":1},{"fieldValue":"phdchat","totalCount":1},{"fieldValue":"rustlang","totalCount":1},{"fieldValue":"tweet","totalCount":104}]},"allBlogPost":{"nodes":[{"id":"TweetPost-1444059767614459907","excerpt":"","slug":"/tweet/1444059767614459907","title":"What are the first five things a company should do before launching? Answer by @eytanbensoussan, Co-Founder of @northonebanking. https://t.co/zhmEiSmGNZ https://t.co/yIRN0oqQGe","date":"October 01, 2021","dateISO":"2021-10-01T22:39:04.000Z","datetime":"2021-10-01 22:39","tags":["tweet"],"image":null,"imageAlt":"Tweet Image","__typename":"SocialMediaPost","provider":"Twitter","thirdPartyId":"1444059767614459907","url":"https://twitter.com/Quora/statuses/1444059767614459907","originalUrl":null,"imageRemote":"https://pbs.twimg.com/media/FApUtN2XIAIspO8.jpg","video":null,"channel":null,"channelUrl":null,"author":"Quora","authorUrl":"https://twitter.com/Quora","authorImageRemote":"https://pbs.twimg.com/profile_images/1413265566693949444/XUVSzyGf.jpg","authorImage":null,"authorSlug":"Quora","score":0,"views":null,"sharedCount":0,"likeCount":0,"sharedContent":null,"parent":{"localize":[{"locale":"ja","full_text":"会社が立ち上げる前に最初にすべき5つのこととは？answer by @eytanbensoussan, Co-Founder of @northonebanking. https://t.co/zhmEiSmGNZ https://t.co/yIRN0oqQGe","quoted_status_full_text":null,"retweeted_status_full_text":null},{"locale":"zh","full_text":"一个公司在启动前应该做的前五件事是什么？回答者：@eytanbensoussan，@northonebanking的联合创始人。https://t.co/zhmEiSmGNZ https://t.co/yIRN0oqQGe","quoted_status_full_text":null,"retweeted_status_full_text":null},{"locale":"zh-Hant","full_text":"一個公司在啓動前應該做的前五件事是什麼？回答者：@eytanbensoussan，@northonebanking的聯合創始人。https://t.co/zhmEiSmGNZ https://t.co/yIRN0oqQGe","quoted_status_full_text":null,"retweeted_status_full_text":null}]}},{"id":"TweetPost-1444029582022254603","excerpt":"","slug":"/tweet/1444029582022254603","title":"The Cumbre Vieja volcano on the island of La Palma off the Morocco coast is erupting again. It was once thought to be the next volcano to undergo catastrophic collapse. Is there any danger of a tsunami crossing the Atlantic? Experts say it's unlikely: https://t.co/zoSKWlNrAr https://t.co/VAyjsgJPCq","date":"October 01, 2021","dateISO":"2021-10-01T20:35:42.000Z","datetime":"2021-10-01 20:35","tags":["tweet"],"image":null,"imageAlt":"Tweet Image","__typename":"SocialMediaPost","provider":"Twitter","thirdPartyId":"1444029582022254603","url":"https://twitter.com/Quora/statuses/1444029582022254603","originalUrl":null,"imageRemote":"https://pbs.twimg.com/media/FAo5QI-XsAUUgTq.jpg","video":null,"channel":null,"channelUrl":null,"author":"Quora","authorUrl":"https://twitter.com/Quora","authorImageRemote":"https://pbs.twimg.com/profile_images/1413265566693949444/XUVSzyGf.jpg","authorImage":null,"authorSlug":"Quora","score":9,"views":null,"sharedCount":3,"likeCount":3,"sharedContent":null,"parent":{"localize":[{"locale":"ja","full_text":"モロッコ沿岸のラ・パルマ島にあるクンブレ・ビエハ火山が再び噴火している。かつては、次に壊滅的な噴火を起こす火山と考えられていた。大西洋を横断する津波の危険はないのか？専門家は、その可能性は低いとしています。https://t.co/zoSKWlNrAr https://t.co/VAyjsgJPCq","quoted_status_full_text":null,"retweeted_status_full_text":null},{"locale":"zh","full_text":"摩洛哥海岸外拉帕尔马岛上的孔布雷-维埃哈火山再次喷发。它曾被认为是下一座发生灾难性坍塌的火山。是否有海啸穿越大西洋的危险？专家说这不太可能: https://t.co/zoSKWlNrAr https://t.co/VAyjsgJPCq","quoted_status_full_text":null,"retweeted_status_full_text":null},{"locale":"zh-Hant","full_text":"摩洛哥海岸外拉帕爾馬島上的孔佈雷-維埃哈火山再次噴發。它曾被認爲是下一座發生災難性坍塌的火山。是否有海嘯穿越大西洋的危險？專家說這不太可能: https://t.co/zoSKWlNrAr https://t.co/VAyjsgJPCq","quoted_status_full_text":null,"retweeted_status_full_text":null}]}},{"id":"TweetPost-1444006898039078912","excerpt":"","slug":"/tweet/1444006898039078912","title":"Hey everyone! Quora has a question for you, for a change. What are you looking for from us on Twitter?","date":"October 01, 2021","dateISO":"2021-10-01T18:45:39.000Z","datetime":"2021-10-01 18:45","tags":["tweet"],"image":null,"imageAlt":null,"__typename":"SocialMediaPost","provider":"Twitter","thirdPartyId":"1444006898039078912","url":"https://twitter.com/Quora/statuses/1444006898039078912","originalUrl":null,"imageRemote":null,"video":null,"channel":null,"channelUrl":null,"author":"Quora","authorUrl":"https://twitter.com/Quora","authorImageRemote":"https://pbs.twimg.com/profile_images/1413265566693949444/XUVSzyGf.jpg","authorImage":null,"authorSlug":"Quora","score":5,"views":null,"sharedCount":1,"likeCount":3,"sharedContent":null,"parent":{"localize":[{"locale":"ja","full_text":"皆さん、こんにちは。Quoraから一転して質問です。ツイッターで私たちに何を求めていますか？","quoted_status_full_text":null,"retweeted_status_full_text":null},{"locale":"zh","full_text":"大家好! Quora有一个问题要问你，改变一下。你想从我们的Twitter上得到什么？","quoted_status_full_text":null,"retweeted_status_full_text":null},{"locale":"zh-Hant","full_text":"大家好! Quora有一個問題要問你，改變一下。你想從我們的Twitter上得到什麼？","quoted_status_full_text":null,"retweeted_status_full_text":null}]}},{"id":"TweetPost-1443939392951885829","excerpt":"","slug":"/tweet/1443939392951885829","title":"How can consumers protect themselves from scams or exploitation? Answer by @brian_dammeir, President of North America at @Adyen. https://t.co/XCI4orcOLy https://t.co/f9jtEFsNQM","date":"October 01, 2021","dateISO":"2021-10-01T14:35:38.000Z","datetime":"2021-10-01 14:35","tags":["tweet"],"image":null,"imageAlt":"Tweet Image","__typename":"SocialMediaPost","provider":"Twitter","thirdPartyId":"1443939392951885829","url":"https://twitter.com/Quora/statuses/1443939392951885829","originalUrl":null,"imageRemote":"https://pbs.twimg.com/media/FAnnOfiXEAIGU3l.jpg","video":null,"channel":null,"channelUrl":null,"author":"Quora","authorUrl":"https://twitter.com/Quora","authorImageRemote":"https://pbs.twimg.com/profile_images/1413265566693949444/XUVSzyGf.jpg","authorImage":null,"authorSlug":"Quora","score":1,"views":null,"sharedCount":0,"likeCount":1,"sharedContent":null,"parent":{"localize":[{"locale":"ja","full_text":"消費者はどのようにして詐欺や搾取から身を守ることができるのでしょうか？Answer by @brian_dammeir, President of North America at @Adyen. https://t.co/XCI4orcOLy https://t.co/f9jtEFsNQM","quoted_status_full_text":null,"retweeted_status_full_text":null},{"locale":"zh","full_text":"消费者如何保护自己免受诈骗或剥削？回答者：@brian_dammeir，@Adyen的北美总裁。https://t.co/XCI4orcOLy https://t.co/f9jtEFsNQM","quoted_status_full_text":null,"retweeted_status_full_text":null},{"locale":"zh-Hant","full_text":"消費者如何保護自己免受詐騙或剝削？回答者：@brian_dammeir，@Adyen的北美總裁。https://t.co/XCI4orcOLy https://t.co/f9jtEFsNQM","quoted_status_full_text":null,"retweeted_status_full_text":null}]}}]}},"pageContext":{"basePath":"/","pageType":"home","tagsFilter":{"date":{"gt":"2000-12-25T10:54:58.000Z"}},"filter":{"date":{"gt":"2000-12-25T10:54:58.000Z"}},"limit":50,"skip":100,"totalPages":3,"total":104,"currentPage":3,"maxWidth":1024,"maxHeight":512,"siteMetadata":null,"locale":"ja","hrefLang":"ja-JA","originalPath":"/page/3","dateFormat":"YYYY-MM-DD"}},
    "staticQueryHashes": ["1239077767","2744905544","3025052997","3280999885"]}