{
    "componentChunkName": "component---node-modules-gatsby-theme-buzzing-src-gatsby-theme-timeline-templates-posts-query-js",
    "path": "/page/3",
    "result": {"data":{"site":{"siteMetadata":{"title":"Quora 热门回答","author":"Buzzing.cc","description":"用中文浏览Quora上的热门回答","keywords":["buzzing","Quora","提问","回答"],"siteUrl":"https://quora.buzzing.cc","telegram":"@buzzingcc","iconUrl":"https://quora.buzzing.cc/avatar.png","defaultSocialImageUrl":null,"social":[{"name":"Quora","url":"https://www.quora.com","external":true},{"name":"Buzzing","url":"https://www.buzzing.cc/","external":true}],"menuLinks":[],"disqus":null,"utterances":null,"localize":[{"title":"Buzzing on Quora","description":"See what's buzzing on Quora in your native language","keywords":["buzzing","Quora"],"locale":"en","social":{"name":null,"url":null,"external":null},"menuLinks":[{"name":"Weekly Selection","url":"/issues","external":null}]},{"title":"Quora 熱門回答","description":"用中文瀏覽Quora上的熱門回答","keywords":["buzzing","Quora","提問","回答"],"locale":"zh-Hant","social":null,"menuLinks":[{"name":"RSS","url":"/zh-Hant/rss.xml","external":null}]},{"title":"Quora 人気の応答","description":"人気のQuora応答を日本語で閲覧","keywords":["buzzing","Quora"],"locale":"ja","social":null,"menuLinks":[]}]}},"tagsGroup":{"group":[{"fieldValue":"BUIDL","totalCount":1},{"fieldValue":"COP26","totalCount":1},{"fieldValue":"NobelPrize","totalCount":3},{"fieldValue":"Python","totalCount":1},{"fieldValue":"SquidGame","totalCount":1},{"fieldValue":"StatisticsDay","totalCount":1},{"fieldValue":"TIL","totalCount":2},{"fieldValue":"WorldTeachersDay","totalCount":1},{"fieldValue":"antiwork","totalCount":1},{"fieldValue":"clojure","totalCount":1},{"fieldValue":"ecrchat","totalCount":1},{"fieldValue":"lyingflat","totalCount":1},{"fieldValue":"phdchat","totalCount":1},{"fieldValue":"rustlang","totalCount":1},{"fieldValue":"tweet","totalCount":101}]},"allBlogPost":{"nodes":[{"id":"TweetPost-1443939392951885829","excerpt":"","slug":"/tweet/1443939392951885829","title":"How can consumers protect themselves from scams or exploitation? Answer by @brian_dammeir, President of North America at @Adyen. https://t.co/XCI4orcOLy https://t.co/f9jtEFsNQM","date":"October 01, 2021","dateISO":"2021-10-01T14:35:38.000Z","datetime":"2021-10-01 14:35","tags":["tweet"],"image":null,"imageAlt":"Tweet Image","__typename":"SocialMediaPost","provider":"Twitter","thirdPartyId":"1443939392951885829","url":"https://twitter.com/Quora/statuses/1443939392951885829","originalUrl":null,"imageRemote":"https://pbs.twimg.com/media/FAnnOfiXEAIGU3l.jpg","video":null,"channel":null,"channelUrl":null,"author":"Quora","authorUrl":"https://twitter.com/Quora","authorImageRemote":"https://pbs.twimg.com/profile_images/1413265566693949444/XUVSzyGf.jpg","authorImage":null,"authorSlug":"Quora","score":1,"views":null,"sharedCount":0,"likeCount":1,"sharedContent":null,"parent":{"localize":[{"locale":"ja","full_text":"消費者はどのようにして詐欺や搾取から身を守ることができるのでしょうか？Answer by @brian_dammeir, President of North America at @Adyen. https://t.co/XCI4orcOLy https://t.co/f9jtEFsNQM","quoted_status_full_text":null,"retweeted_status_full_text":null},{"locale":"zh","full_text":"消费者如何保护自己免受诈骗或剥削？回答者：@brian_dammeir，@Adyen的北美总裁。https://t.co/XCI4orcOLy https://t.co/f9jtEFsNQM","quoted_status_full_text":null,"retweeted_status_full_text":null},{"locale":"zh-Hant","full_text":"消費者如何保護自己免受詐騙或剝削？回答者：@brian_dammeir，@Adyen的北美總裁。https://t.co/XCI4orcOLy https://t.co/f9jtEFsNQM","quoted_status_full_text":null,"retweeted_status_full_text":null}]}}]}},"pageContext":{"basePath":"/","pageType":"home","tagsFilter":{"date":{"gt":"2000-12-25T10:54:58.000Z"}},"filter":{"date":{"gt":"2000-12-25T10:54:58.000Z"}},"limit":50,"skip":100,"totalPages":3,"total":101,"currentPage":3,"maxWidth":1024,"maxHeight":512,"siteMetadata":null,"locale":"zh","hrefLang":"zh-Hans","originalPath":"/page/3","dateFormat":"YYYY-MM-DD"}},
    "staticQueryHashes": ["1239077767","2744905544","3025052997","3280999885"]}